<?xml version="1.0" standalone="no"?>
<!DOCTYPE svg PUBLIC "-//W3C//DTD SVG 1.1//EN" "http://www.w3.org/Graphics/SVG/1.1/DTD/svg11.dtd" >
<svg xmlns="http://www.w3.org/2000/svg">
<metadata></metadata>
<defs>
<font id="droid_sansregular" horiz-adv-x="1128" >
<font-face units-per-em="2048" ascent="1638" descent="-410" />
<missing-glyph horiz-adv-x="532" />
<glyph horiz-adv-x="2048" />
<glyph horiz-adv-x="2048" />
<glyph unicode="&#xd;" horiz-adv-x="1044" />
<glyph unicode=" "  horiz-adv-x="532" />
<glyph unicode="&#x09;" horiz-adv-x="532" />
<glyph unicode="&#xa0;" horiz-adv-x="532" />
<glyph unicode="!" horiz-adv-x="551" d="M147 111q0 38 10 64.5t27 43t40 24t50 7.5q26 0 49.5 -7.5t40.5 -24t27 -43t10 -64.5q0 -37 -10 -63.5t-27 -43.5t-40.5 -25t-49.5 -8q-27 0 -50 8t-40 25t-27 43.5t-10 63.5zM164 1462h223l-51 -1048h-121z" />
<glyph unicode="&#x22;" horiz-adv-x="823" d="M133 1462h197l-41 -528h-115zM494 1462h196l-41 -528h-114z" />
<glyph unicode="#" horiz-adv-x="1323" d="M51 428v137h285l65 328h-274v137h299l82 432h147l-82 -432h293l84 432h144l-84 -432h262v-137h-289l-63 -328h280v-137h-307l-82 -428h-147l84 428h-291l-82 -428h-144l78 428h-258zM483 565h291l64 328h-291z" />
<glyph unicode="$" d="M123 172v172q33 -16 76.5 -32.5t91.5 -29.5t98.5 -21.5t97.5 -8.5v434q-89 30 -154.5 63t-108.5 75.5t-64 97.5t-21 129q0 67 24.5 122.5t70 97t110 68t143.5 35.5v180h138v-176q100 -5 184.5 -26t151.5 -52l-66 -145q-56 25 -126 45.5t-144 26.5v-422q88 -31 155.5 -64 t113 -74.5t68.5 -95t23 -125.5q0 -70 -25 -127t-71.5 -99t-113 -69.5t-150.5 -39.5v-230h-138v221q-50 0 -101 4.5t-99 13.5t-90 22t-74 30zM315 1049q0 -36 8.5 -64.5t28.5 -52t53 -42.5t82 -36v369q-89 -16 -130.5 -60.5t-41.5 -113.5zM625 262q93 14 138.5 63t45.5 121 q0 33 -10 60.5t-31.5 50t-56.5 41.5t-86 37v-373z" />
<glyph unicode="%" horiz-adv-x="1690" d="M102 1026q0 108 17.5 193t54 143.5t93 89.5t134.5 31q75 0 131.5 -31t95 -89.5t58 -143.5t19.5 -193t-18 -194t-55 -145t-94.5 -90.5t-136.5 -31.5q-73 0 -129 31.5t-94 90.5t-57 145t-19 194zM250 1026q0 -165 35.5 -247.5t115.5 -82.5q156 0 156 330q0 328 -156 328 q-80 0 -115.5 -81.5t-35.5 -246.5zM362 0l812 1462h157l-811 -1462h-158zM985 440q0 108 17.5 193t54 143.5t93 89.5t134.5 31q75 0 131.5 -31t94.5 -89.5t57.5 -143.5t19.5 -193t-17.5 -193.5t-54.5 -144.5t-94.5 -90.5t-136.5 -31.5q-74 0 -130 31.5t-93.5 90.5 t-56.5 144.5t-19 193.5zM1133 440q0 -165 35.5 -247t115.5 -82q156 0 156 329q0 328 -156 328q-80 0 -115.5 -81.5t-35.5 -246.5z" />
<glyph unicode="&#x26;" horiz-adv-x="1438" d="M109 381q0 78 20 139t58.5 111t94 93t126.5 85q-31 36 -61 74.5t-52.5 82t-36.5 93t-14 106.5q0 75 25 134.5t72 101t116 63t157 21.5q83 0 148.5 -21.5t111 -63t69.5 -101t24 -134.5q0 -64 -25 -118.5t-67 -101t-96.5 -86t-114.5 -75.5l352 -372q27 29 48.5 59t38.5 64 t30.5 73t23.5 86h184q-15 -66 -35.5 -121.5t-47 -104.5t-59 -91.5t-71.5 -83.5l277 -293h-225l-168 172q-49 -45 -97 -80.5t-102 -60t-116 -38t-140 -13.5q-105 0 -188.5 26.5t-141 78t-88 126t-30.5 170.5zM299 387q0 -54 17.5 -99.5t50.5 -78t81 -50.5t109 -18 q58 0 107 11.5t91 31.5t78 47t68 58l-387 407q-52 -33 -92 -64.5t-67.5 -67.5t-41.5 -78.5t-14 -98.5zM422 1165q0 -34 8 -66.5t24.5 -65t42.5 -66t62 -70.5q59 35 102 66t71 63t42 67t14 76q0 36 -12.5 66.5t-36 52.5t-56.5 34.5t-75 12.5q-86 0 -136 -44.5t-50 -125.5z " />
<glyph unicode="'" horiz-adv-x="463" d="M133 1462h197l-41 -528h-115z" />
<glyph unicode="(" horiz-adv-x="616" d="M82 561q0 125 18 246.5t55 236t93.5 220t134.5 198.5h172q-140 -193 -212.5 -424t-72.5 -475q0 -119 18.5 -237t54 -231t88.5 -219t122 -200h-170q-78 90 -134.5 193t-93.5 215.5t-55 232.5t-18 244z" />
<glyph unicode=")" horiz-adv-x="616" d="M61 1462h172q78 -93 134.5 -198.5t94 -220t55.5 -236t18 -246.5q0 -124 -18 -244t-55.5 -232.5t-94 -215.5t-134.5 -193h-170q69 94 122 200t89 219t54 231t18 237q0 244 -72 475t-213 424z" />
<glyph unicode="*" d="M82 1081l29 193l391 -111l-43 393h205l-43 -393l397 111l26 -193l-378 -28l245 -326l-178 -96l-176 358l-158 -358l-184 96l242 326z" />
<glyph unicode="+" d="M102 647v150h387v389h150v-389h387v-150h-387v-385h-150v385h-387z" />
<glyph unicode="," horiz-adv-x="512" d="M63 -264q15 61 29.5 127t28 131.5t24.5 128t19 115.5h198l15 -23q-14 -54 -33.5 -115t-43 -123t-49 -123.5t-50.5 -117.5h-138z" />
<glyph unicode="-" horiz-adv-x="659" d="M82 465v168h496v-168h-496z" />
<glyph unicode="." horiz-adv-x="549" d="M147 111q0 38 10 64.5t27 43t40 24t50 7.5q26 0 49.5 -7.5t40.5 -24t27 -43t10 -64.5q0 -37 -10 -63.5t-27 -43.5t-40.5 -25t-49.5 -8q-27 0 -50 8t-40 25t-27 43.5t-10 63.5z" />
<glyph unicode="/" horiz-adv-x="764" d="M20 0l545 1462h178l-544 -1462h-179z" />
<glyph unicode="0" d="M98 733q0 177 25.5 317t81 236.5t144 147.5t214.5 51q119 0 207 -50.5t146 -147t87 -236.5t29 -318q0 -177 -25.5 -317t-82 -237t-145.5 -148t-216 -51q-118 0 -205.5 51t-145 148t-86 237t-28.5 317zM283 733q0 -150 15 -262t48 -186.5t86.5 -112t130.5 -37.5t131 37 t88.5 111t50 186.5t15.5 263.5q0 150 -15.5 262t-50 186t-88.5 111t-131 37t-130.5 -37t-86.5 -111t-48 -186t-15 -262z" />
<glyph unicode="1" d="M178 1163l383 299h150v-1462h-176v913q0 43 0.5 92t2 97.5t3 93t2.5 78.5q-17 -18 -30 -31t-26.5 -25t-28.5 -25.5t-36 -31.5l-148 -121z" />
<glyph unicode="2" d="M96 0v156l350 381q75 81 134 148t100.5 131t63.5 128.5t22 140.5q0 59 -17 104t-48.5 76.5t-74.5 47.5t-96 16q-95 0 -171.5 -38.5t-145.5 -98.5l-102 119q40 36 86 67.5t99 54.5t112 36.5t124 13.5q96 0 173.5 -27t131.5 -77.5t83.5 -123t29.5 -163.5q0 -85 -26.5 -162 t-73 -151.5t-111 -149.5t-139.5 -156l-281 -299v-8h689v-166h-912z" />
<glyph unicode="3" d="M82 59v170q87 -46 188.5 -71t194.5 -25q92 0 159 20t110.5 57t64 91t20.5 121q0 68 -26.5 116.5t-75.5 80t-119.5 46.5t-159.5 15h-133v151h133q81 0 144 20t105.5 57t64.5 88t22 112q0 52 -18 93t-51 69.5t-79 43.5t-102 15q-107 0 -188.5 -33.5t-155.5 -87.5l-92 125 q38 31 84.5 58t101.5 47.5t117.5 32.5t132.5 12q108 0 189.5 -27t136.5 -75.5t83 -115t28 -145.5q0 -73 -23 -133t-64.5 -104t-99.5 -72.5t-129 -40.5v-6q177 -22 269 -112.5t92 -235.5q0 -96 -32.5 -176t-98.5 -138t-167 -90t-239 -32q-109 0 -205.5 17t-181.5 62z" />
<glyph unicode="4" d="M23 328v159l663 983h188v-976h213v-166h-213v-328h-176v328h-675zM201 494h497v356q0 56 1.5 117.5t3.5 120t4.5 109.5t3.5 85h-9q-7 -20 -17.5 -44.5t-23 -49t-25.5 -47.5t-24 -39z" />
<glyph unicode="5" d="M131 59v172q33 -23 77.5 -41t93.5 -30t98.5 -18.5t91.5 -6.5q79 0 141 18.5t105 57.5t66 98t23 140q0 143 -88 218.5t-256 75.5q-27 0 -58.5 -2.5t-63 -6.5t-60 -8.5t-49.5 -8.5l-90 57l55 688h690v-166h-532l-39 -419q32 6 84.5 13t124.5 7q99 0 184.5 -27.5t149 -81.5 t99.5 -134t36 -185q0 -114 -34 -205t-101 -154t-165.5 -96.5t-226.5 -33.5q-51 0 -100.5 5t-95 14.5t-86.5 24.5t-74 35z" />
<glyph unicode="6" d="M113 625q0 105 10.5 209t37 199.5t72.5 177.5t117 142.5t170 95t232 34.5q19 0 42 -1t46.5 -3.5t45 -6t38.5 -8.5v-155q-35 12 -79 18t-87 6q-90 0 -158.5 -21.5t-118.5 -60.5t-83.5 -93t-54.5 -119.5t-31 -139.5t-13 -154h12q20 36 48.5 67.5t66.5 54t85.5 35.5 t106.5 13q95 0 172 -29.5t131 -86.5t83.5 -139.5t29.5 -188.5q0 -114 -31 -205t-89 -154.5t-140 -97.5t-184 -34q-100 0 -187.5 39t-151.5 119t-101 201t-37 286zM295 506q0 -67 18.5 -133.5t55 -119.5t91.5 -86.5t128 -33.5q60 0 109.5 20.5t85.5 62t55.5 105t19.5 150.5 q0 70 -16.5 125.5t-49.5 94.5t-82.5 60t-115.5 21q-67 0 -122.5 -23.5t-94.5 -61t-60.5 -85.5t-21.5 -96z" />
<glyph unicode="7" d="M90 1296v166h940v-145l-555 -1317h-194l563 1296h-754z" />
<glyph unicode="8" d="M106 373q0 75 22.5 135t60.5 108t90 85t110 65q-49 31 -92 67.5t-74.5 81.5t-50 99.5t-18.5 120.5q0 87 33.5 152.5t90.5 109.5t131.5 66t155.5 22q84 0 158.5 -22t131 -66t89.5 -110t33 -154q0 -67 -20 -121t-55 -97.5t-83 -78t-104 -62.5q58 -31 113.5 -69t99 -85.5 t70 -106.5t26.5 -132q0 -92 -33.5 -166.5t-94 -126.5t-145 -80t-186.5 -28q-110 0 -195.5 27t-144 77.5t-89 123.5t-30.5 165zM285 371q0 -53 16 -97.5t50 -76t86 -49t124 -17.5q70 0 123.5 17.5t89.5 50t54 78.5t18 102q0 52 -19.5 94t-56 78t-87.5 68t-114 63l-30 14 q-126 -60 -190 -137.5t-64 -187.5zM332 1126q0 -57 17.5 -98t48.5 -73t74.5 -57.5t94.5 -49.5q48 22 90.5 48t74 59t49.5 75t18 96q0 101 -63 154t-173 53q-106 0 -168.5 -53t-62.5 -154z" />
<glyph unicode="9" d="M106 991q0 114 31.5 205.5t89 155t140 97.5t184.5 34q101 0 188 -39t151 -119t101 -201.5t37 -285.5q0 -105 -10.5 -209.5t-37 -199.5t-72.5 -177.5t-117 -142.5t-170 -94.5t-232 -34.5q-19 0 -42 1t-46 3.5t-45 5.5t-39 8v156q35 -13 79 -19t87 -6q135 0 222 47 t138 127.5t72.5 187.5t26.5 226h-13q-20 -36 -48 -67t-66 -54t-86 -36t-107 -13q-95 0 -172 29.5t-131 86.5t-83.5 139.5t-29.5 188.5zM283 991q0 -70 16.5 -125.5t49.5 -94.5t82.5 -60t115.5 -21q68 0 123 23.5t94 61t60.5 85.5t21.5 96q0 67 -18.5 133.5t-55 120 t-91.5 86.5t-128 33q-60 0 -109.5 -20t-85.5 -62t-55.5 -105.5t-19.5 -150.5z" />
<glyph unicode=":" horiz-adv-x="549" d="M147 111q0 38 10 64.5t27 43t40 24t50 7.5q26 0 49.5 -7.5t40.5 -24t27 -43t10 -64.5q0 -37 -10 -63.5t-27 -43.5t-40.5 -25t-49.5 -8q-27 0 -50 8t-40 25t-27 43.5t-10 63.5zM147 987q0 39 10 65.5t27 43t40 23.5t50 7q26 0 49.5 -7t40.5 -23.5t27 -43t10 -65.5 q0 -37 -10 -63t-27 -43t-40.5 -25t-49.5 -8q-27 0 -50 8t-40 25t-27 43t-10 63z" />
<glyph unicode=";" horiz-adv-x="549" d="M63 -264q15 61 29.5 127t28 131.5t24.5 128t19 115.5h198l15 -23q-14 -54 -33.5 -115t-43 -123t-49 -123.5t-50.5 -117.5h-138zM147 987q0 39 10 65.5t27 43t40 23.5t50 7q26 0 49.5 -7t40.5 -23.5t27 -43t10 -65.5q0 -37 -10 -63t-27 -43t-40.5 -25t-49.5 -8 q-27 0 -50 8t-40 25t-27 43t-10 63z" />
<glyph unicode="&#x3c;" d="M102 662v102l924 481v-160l-735 -364l735 -322v-161z" />
<glyph unicode="=" d="M102 442v150h924v-150h-924zM102 852v149h924v-149h-924z" />
<glyph unicode="&#x3e;" d="M102 238v161l736 322l-736 364v160l924 -481v-102z" />
<glyph unicode="?" horiz-adv-x="872" d="M37 1382q81 42 175 71.5t191 29.5q93 0 167.5 -25.5t126.5 -73.5t80 -117.5t28 -156.5q0 -67 -13.5 -119.5t-40.5 -97.5t-67 -87t-94 -89q-52 -45 -85 -78.5t-52 -65t-26 -64.5t-7 -77v-18h-139v37q0 57 7.5 103t27 86t52.5 78.5t83 80.5q48 41 82 74.5t55.5 68t32 74 t10.5 92.5q0 48 -15 87.5t-43.5 68t-71 44t-98.5 15.5q-83 0 -158 -26t-145 -60zM233 111q0 38 10 64.5t27 43t40 24t50 7.5q26 0 49.5 -7.5t40.5 -24t27 -43t10 -64.5q0 -37 -10 -63.5t-27 -43.5t-40.5 -25t-49.5 -8q-27 0 -50 8t-40 25t-27 43.5t-10 63.5z" />
<glyph unicode="@" horiz-adv-x="1774" d="M109 575q0 188 59 350.5t168.5 281.5t265 187t348.5 68q156 0 287 -50.5t226.5 -145t148.5 -230t53 -305.5q0 -62 -9.5 -124.5t-28 -119t-47 -105t-66.5 -84.5t-86.5 -56.5t-106.5 -20.5q-45 0 -81.5 15t-62.5 40t-42.5 57.5t-22.5 67.5h-4q-18 -37 -45 -70t-62.5 -57.5 t-80 -38.5t-97.5 -14q-77 0 -136.5 28t-100.5 78.5t-62.5 121.5t-21.5 157q0 101 29.5 185t85 145t134.5 95t177 34q45 0 90 -4t86 -11t75.5 -15.5t57.5 -16.5l-23 -416q-1 -22 -1.5 -35.5t-0.5 -21.5v-12v-7q0 -53 10.5 -87t27.5 -54t38.5 -27.5t44.5 -7.5q46 0 81 30.5 t58.5 82.5t35.5 122t12 148q0 142 -43 252.5t-119 186.5t-180.5 115.5t-227.5 39.5q-169 0 -298 -55.5t-216.5 -155t-132.5 -236t-45 -298.5q0 -151 39.5 -268t116 -197t190 -121t260.5 -41q61 0 120.5 7t115 19t105.5 27.5t93 32.5v-141q-86 -38 -194 -60t-238 -22 q-179 0 -319.5 51t-238 148.5t-148.5 238t-51 319.5zM662 602q0 -133 50.5 -192.5t135.5 -59.5q55 0 94 22.5t64 64t38 99t17 126.5l14 253q-28 8 -66.5 14.5t-80.5 6.5q-74 0 -124.5 -29t-82 -76t-45.5 -107t-14 -122z" />
<glyph unicode="A" horiz-adv-x="1245" d="M0 0l537 1468h170l538 -1468h-190l-160 453h-545l-162 -453h-188zM410 618h426l-148 424q-6 18 -14.5 44t-17.5 56t-18 62.5t-17 63.5q-7 -31 -16 -64t-18 -63.5t-17.5 -56t-14.5 -42.5z" />
<glyph unicode="B" horiz-adv-x="1272" d="M199 0v1462h399q128 0 225.5 -19.5t163 -63t98.5 -114t33 -173.5q0 -62 -19.5 -116t-56.5 -95t-91.5 -68.5t-123.5 -36.5v-10q69 -12 129.5 -34.5t105.5 -62t71 -99.5t26 -146q0 -100 -32.5 -178.5t-94 -133t-149.5 -83.5t-199 -29h-485zM385 158h266q88 0 147.5 20 t96 56t52.5 86.5t16 111.5q0 56 -16.5 103t-54 80.5t-99.5 52t-154 18.5h-254v-528zM385 842h244q84 0 141 15t92 44.5t50.5 74t15.5 103.5q0 120 -77 172t-243 52h-223v-461z" />
<glyph unicode="C" horiz-adv-x="1235" d="M125 733q0 166 43.5 304t128 237t209.5 154t287 55q108 0 206 -22t177 -64l-78 -156q-63 32 -137 55t-168 23q-107 0 -194 -40.5t-148.5 -116.5t-95 -185t-33.5 -246q0 -141 29.5 -250.5t88.5 -184.5t147 -114t206 -39q89 0 169 17.5t158 40.5v-162q-39 -15 -78 -26.5 t-81.5 -18.5t-91 -10.5t-107.5 -3.5q-164 0 -284 54t-198.5 153t-116.5 238t-38 308z" />
<glyph unicode="D" horiz-adv-x="1401" d="M199 0v1462h407q153 0 277 -46t211 -136.5t134.5 -224.5t47.5 -310q0 -185 -48 -324.5t-139 -233t-223.5 -140.5t-300.5 -47h-366zM385 160h162q264 0 398 146t134 433q0 146 -33 252.5t-96 175.5t-155 102.5t-209 33.5h-201v-1143z" />
<glyph unicode="E" horiz-adv-x="1081" d="M199 0v1462h759v-164h-573v-452h535v-162h-535v-520h573v-164h-759z" />
<glyph unicode="F" horiz-adv-x="1006" d="M199 0v1462h759v-164h-573v-516h535v-164h-535v-618h-186z" />
<glyph unicode="G" horiz-adv-x="1413" d="M125 733q0 172 47.5 311t138.5 236.5t224.5 150t304.5 52.5q111 0 213 -22t190 -64l-72 -162q-36 17 -77.5 32t-85.5 26.5t-90.5 18.5t-92.5 7q-122 0 -216 -40.5t-157.5 -116.5t-96.5 -185t-33 -246q0 -130 27.5 -238t87.5 -186t155 -121t229 -43q44 0 80.5 2.5 t67.5 6.5t58.5 9.5t53.5 10.5v436h-299v164h484v-717q-55 -18 -111 -32t-115 -23.5t-124 -14.5t-140 -5q-157 0 -278 52.5t-204 150t-126 237t-43 313.5z" />
<glyph unicode="H" horiz-adv-x="1436" d="M199 0v1462h186v-616h666v616h186v-1462h-186v682h-666v-682h-186z" />
<glyph unicode="I" horiz-adv-x="694" d="M82 0v102l172 41v1176l-172 41v102h530v-102l-172 -41v-1176l172 -41v-102h-530z" />
<glyph unicode="J" horiz-adv-x="555" d="M-184 -205q34 -9 73 -14.5t84 -5.5q37 0 74.5 9.5t68 34.5t49.5 69t19 112v1462h187v-1442q0 -105 -29.5 -182t-82 -127.5t-126 -75t-162.5 -24.5q-51 0 -89 6.5t-66 17.5v160z" />
<glyph unicode="K" horiz-adv-x="1186" d="M199 0v1462h186v-731l121 168l452 563h209l-520 -637l539 -825h-211l-451 698l-139 -114v-584h-186z" />
<glyph unicode="L" horiz-adv-x="1006" d="M199 0v1462h186v-1296h573v-166h-759z" />
<glyph unicode="M" horiz-adv-x="1782" d="M199 0v1462h276l412 -1192h6l414 1192h276v-1462h-186v887q0 52 2 119t5 128q4 71 7 144h-8l-447 -1278h-153l-443 1280h-8q6 -74 10 -147q4 -63 6.5 -132.5t2.5 -126.5v-874h-172z" />
<glyph unicode="N" horiz-adv-x="1493" d="M199 0v1462h213l716 -1204h7q-3 76 -7 150q-1 32 -2.5 65.5l-3 67t-2 64.5t-0.5 57v800h174v-1462h-215l-719 1210h-8q6 -77 10 -153q4 -65 6.5 -136t2.5 -128v-793h-172z" />
<glyph unicode="O" horiz-adv-x="1520" d="M125 735q0 170 38 308.5t117 236.5t199 151.5t283 53.5q155 0 272.5 -53.5t197.5 -152t120.5 -237t40.5 -309.5q0 -169 -40.5 -308t-120.5 -238t-198.5 -153t-273.5 -54q-163 0 -282.5 54t-198 153t-116.5 238.5t-38 309.5zM322 733q0 -137 26 -246.5t79.5 -186t136 -117 t196.5 -40.5t196.5 40.5t136 117t78.5 186t25 246.5q0 138 -25 247t-78 184.5t-135 116t-196 40.5t-197 -40.5t-137 -116t-80 -184.5t-26 -247z" />
<glyph unicode="P" horiz-adv-x="1180" d="M199 0v1462h362q134 0 231 -28.5t160 -83t93 -134.5t30 -182q0 -91 -27.5 -175t-90.5 -148.5t-166.5 -103t-255.5 -38.5h-150v-569h-186zM385 727h129q93 0 162.5 16t115 51.5t68.5 92t23 137.5q0 142 -82 210.5t-256 68.5h-160v-576z" />
<glyph unicode="Q" horiz-adv-x="1518" d="M125 735q0 170 38 308.5t117 236.5t199 151.5t283 53.5q155 0 272.5 -53.5t197.5 -152t120.5 -237t40.5 -309.5q0 -131 -24.5 -244t-72 -203.5t-118.5 -156.5t-164 -104q43 -94 111.5 -165.5t158.5 -131.5l-121 -142q-103 73 -189.5 172t-137.5 226q-17 -2 -37.5 -3 t-38.5 -1q-163 0 -282.5 54t-198 153t-116.5 238.5t-38 309.5zM322 733q0 -137 26 -246.5t79.5 -186t136 -117t196.5 -40.5t196.5 40.5t136 117t78.5 186t25 246.5q0 138 -25 247t-78 184.5t-135 116t-196 40.5t-197 -40.5t-137 -116t-80 -184.5t-26 -247z" />
<glyph unicode="R" horiz-adv-x="1208" d="M199 0v1462h356q266 0 393 -103t127 -312q0 -87 -24.5 -152t-65 -111.5t-92.5 -77.5t-107 -51l398 -655h-219l-351 604h-229v-604h-186zM385 762h164q90 0 153 17.5t103.5 52t59 86t18.5 120.5q0 72 -20.5 122t-62 82t-105 46.5t-150.5 14.5h-160v-541z" />
<glyph unicode="S" horiz-adv-x="1063" d="M104 49v178q34 -16 77.5 -31.5t91.5 -27.5t99 -19.5t101 -7.5q160 0 236.5 60t76.5 172q0 54 -14.5 94t-51 73.5t-97.5 65t-154 68.5q-89 35 -154.5 76.5t-108 93.5t-63 118t-20.5 150q0 88 32 157t90 116.5t138.5 72.5t177.5 25q119 0 214 -22.5t169 -57.5l-67 -156 q-65 29 -147.5 50.5t-170.5 21.5q-122 0 -189 -56.5t-67 -152.5q0 -57 15 -98.5t50 -75t92.5 -63t141.5 -62.5q91 -36 159.5 -74t114.5 -86t69.5 -111t23.5 -149q0 -97 -34.5 -173.5t-98.5 -129.5t-156 -80.5t-207 -27.5q-111 0 -207.5 17.5t-161.5 51.5z" />
<glyph unicode="T" horiz-adv-x="1063" d="M20 1298v164h1022v-164h-417v-1298h-187v1298h-418z" />
<glyph unicode="U" horiz-adv-x="1430" d="M184 520v942h187v-952q0 -175 86.5 -271t261.5 -96q89 0 153 27t105 76t61 117t21 149v952h186v-948q0 -114 -33 -212t-99.5 -170t-167 -113t-236.5 -41q-128 0 -226 38.5t-164.5 109.5t-100.5 170.5t-34 221.5z" />
<glyph unicode="V" horiz-adv-x="1163" d="M0 1462h197l295 -927q29 -91 50 -175.5t38 -158.5q15 74 38 158.5t54 181.5l293 921h198l-489 -1462h-187z" />
<glyph unicode="W" horiz-adv-x="1810" d="M20 1462h197l223 -889q12 -46 22 -95.5t18.5 -98.5t15.5 -94.5t12 -83.5q5 37 12.5 86t17.5 103t21.5 109.5t24.5 104.5l225 858h197l229 -856q15 -56 29.5 -112t27 -108.5t22 -99.5t15.5 -85q4 38 10 83t14 94.5t17.5 101t20.5 100.5l200 882h199l-367 -1462h-188 l-254 938q-14 51 -27 105t-24 101q-12 55 -23 107q-11 -51 -22 -106q-10 -47 -22.5 -103t-26.5 -110l-242 -932h-188z" />
<glyph unicode="X" horiz-adv-x="1120" d="M0 0l453 764l-422 698h198l332 -559l334 559h190l-421 -692l456 -770h-211l-354 635l-367 -635h-188z" />
<glyph unicode="Y" horiz-adv-x="1079" d="M0 1462h203l336 -739l340 739h200l-446 -893v-569h-187v559z" />
<glyph unicode="Z" horiz-adv-x="1104" d="M82 0v145l711 1151h-691v166h899v-145l-710 -1151h731v-166h-940z" />
<glyph unicode="[" horiz-adv-x="621" d="M164 -324v1786h405v-149h-223v-1487h223v-150h-405z" />
<glyph unicode="\" horiz-adv-x="764" d="M23 1462h178l544 -1462h-178z" />
<glyph unicode="]" horiz-adv-x="621" d="M51 -174h223v1487h-223v149h406v-1786h-406v150z" />
<glyph unicode="^" horiz-adv-x="1090" d="M41 549l459 924h102l447 -924h-161l-337 735l-349 -735h-161z" />
<glyph unicode="_" horiz-adv-x="842" d="M-4 -184h850v-140h-850v140z" />
<glyph unicode="`" horiz-adv-x="1182" d="M393 1548v21h219q16 -34 37.5 -74.5t44.5 -81t47 -78.5t45 -67v-27h-120q-35 28 -76 69.5t-79.5 85.5t-70 84.5t-47.5 67.5z" />
<glyph unicode="a" horiz-adv-x="1087" d="M94 307q0 164 115.5 252t351.5 96l184 7v69q0 67 -14.5 112t-42 72.5t-68 39.5t-92.5 12q-83 0 -154.5 -24t-137.5 -58l-64 137q74 40 165 68t191 28q102 0 176.5 -20.5t123 -65t72.5 -113.5t24 -167v-752h-131l-37 152h-8q-33 -45 -66 -77.5t-72 -53.5t-87 -31t-111 -10 q-69 0 -127 19.5t-100.5 60t-66.5 102t-24 145.5zM283 305q0 -92 48.5 -135t127.5 -43q61 0 113 19t90 57.5t59.5 97t21.5 137.5v99l-143 -7q-90 -4 -151 -20t-97.5 -44.5t-52.5 -69t-16 -91.5z" />
<glyph unicode="b" horiz-adv-x="1200" d="M174 0v1556h182v-376q0 -35 -1 -74.5t-3 -73.5q-2 -40 -4 -78h8q23 35 52 65t67.5 52t86.5 34.5t108 12.5q94 0 171 -36t131.5 -107.5t84.5 -177.5t30 -246q0 -141 -30 -247.5t-84.5 -178.5t-131.5 -108.5t-171 -36.5q-59 0 -107 13t-86.5 34.5t-68 50.5t-52.5 61h-12 l-37 -139h-133zM356 551q0 -101 13.5 -179.5t46 -132t86.5 -81t135 -27.5q135 0 198.5 109t63.5 313q0 208 -63.5 311t-200.5 103q-80 0 -133.5 -25.5t-86 -77.5t-46 -130t-13.5 -183z" />
<glyph unicode="c" horiz-adv-x="948" d="M113 543q0 157 38 266.5t104.5 178t155.5 99.5t191 31q78 0 152.5 -17t124.5 -42l-54 -154q-23 10 -51 19.5t-58 17t-59 12t-55 4.5q-157 0 -229 -100.5t-72 -312.5q0 -211 72.5 -308.5t220.5 -97.5q81 0 146.5 18.5t119.5 43.5v-162q-54 -29 -115.5 -44t-150.5 -15 q-101 0 -189 31.5t-153 100t-102 175t-37 256.5z" />
<glyph unicode="d" horiz-adv-x="1200" d="M113 547q0 141 30 247.5t85 178.5t132 108.5t170 36.5q59 0 107 -13t86.5 -35t68.5 -51t52 -61h12q-3 34 -6 65q-2 26 -4 53.5t-2 43.5v436h182v-1556h-147l-27 147h-8q-22 -34 -51.5 -64.5t-68 -53.5t-86.5 -36t-108 -13q-93 0 -170 36t-132 107.5t-85 177.5t-30 246z M301 545q0 -209 63.5 -311.5t200.5 -102.5q76 0 128.5 23t85 70t48 117.5t17.5 164.5v41q0 101 -13.5 179.5t-46 132t-86.5 81t-135 27.5q-135 0 -198.5 -109t-63.5 -313z" />
<glyph unicode="e" horiz-adv-x="1096" d="M113 541q0 136 33 243t93 181.5t143.5 113.5t184.5 39q99 0 178 -35.5t134 -100t84.5 -155t29.5 -200.5v-113h-692q5 -193 81.5 -284t227.5 -91q51 0 94.5 5t84 14.5t78.5 24t77 32.5v-162q-40 -19 -78.5 -33t-79 -23t-84 -13t-94.5 -4q-110 0 -201 37t-156.5 108 t-101.5 176t-36 240zM305 662h492q0 68 -13.5 124.5t-42 96.5t-72.5 62t-106 22q-114 0 -180.5 -78t-77.5 -227z" />
<glyph unicode="f" horiz-adv-x="674" d="M29 961v75l194 68v96q0 107 22.5 177.5t65 112.5t104.5 59.5t140 17.5q59 0 108.5 -11.5t88.5 -25.5l-47 -141q-31 11 -67.5 19.5t-76.5 8.5t-69 -9.5t-48 -33.5t-28.5 -65.5t-9.5 -106.5v-104h245v-137h-245v-961h-183v961h-194z" />
<glyph unicode="g" horiz-adv-x="1061" d="M37 -186q0 60 19.5 105.5t52.5 78.5t76.5 54t90.5 32q-42 19 -69 60t-27 94q0 61 32 105.5t101 86.5q-43 18 -78.5 49.5t-60 72t-38 88.5t-13.5 99q0 89 25 159t74 119t122 75t170 26q37 0 76.5 -5.5t66.5 -14.5h363v-113l-197 -27q28 -35 47 -89.5t19 -123.5 q0 -76 -23.5 -140.5t-71 -111.5t-117.5 -73.5t-163 -26.5q-22 0 -44 0.5t-36 3.5q-17 -10 -33.5 -22.5t-30 -28.5t-22 -36t-8.5 -44q0 -27 12 -43.5t32.5 -25.5t48.5 -12t59 -3h176q93 0 157 -23.5t104.5 -63.5t58.5 -94.5t18 -115.5q0 -88 -32.5 -158t-99.5 -118.5 t-169.5 -74.5t-241.5 -26q-107 0 -187 21t-133 61t-79.5 96.5t-26.5 127.5zM209 -180q0 -37 13 -69t42.5 -55t78 -36.5t120.5 -13.5q186 0 278.5 57.5t92.5 165.5q0 46 -12 75t-39.5 45.5t-72.5 22.5t-110 6h-176q-35 0 -73 -8t-69.5 -30t-52 -60.5t-20.5 -99.5zM301 745 q0 -115 54 -171t153 -56q100 0 151.5 55.5t51.5 174.5q0 123 -52.5 181t-152.5 58q-99 0 -152 -60t-53 -182z" />
<glyph unicode="h" horiz-adv-x="1206" d="M174 0v1556h182v-462l-8 -144h10q25 43 59.5 74.5t75.5 52.5t87 31t94 10q183 0 275.5 -95.5t92.5 -305.5v-717h-182v707q0 130 -52.5 195t-164.5 65q-81 0 -136 -26t-88.5 -77t-48 -125t-14.5 -170v-569h-182z" />
<glyph unicode="i" horiz-adv-x="530" d="M160 1395q0 60 30.5 87t75.5 27q22 0 41.5 -6.5t34 -20.5t23 -35.5t8.5 -51.5q0 -58 -31.5 -86.5t-75.5 -28.5q-45 0 -75.5 28t-30.5 87zM174 0v1098h182v-1098h-182z" />
<glyph unicode="j" horiz-adv-x="530" d="M-68 -319q26 -10 53 -15.5t62 -5.5q27 0 50 7.5t40.5 27t27 52t9.5 83.5v1268h182v-1256q0 -77 -17 -138.5t-53 -105t-90.5 -67t-129.5 -23.5q-48 0 -79.5 7t-54.5 18v148zM160 1395q0 60 30.5 87t75.5 27q22 0 41.5 -6.5t34 -20.5t23 -35.5t8.5 -51.5q0 -58 -31.5 -86.5 t-75.5 -28.5q-45 0 -75.5 28t-30.5 87z" />
<glyph unicode="k" horiz-adv-x="1016" d="M174 0v1556h180v-714l-16 -275h4l135 170l293 361h211l-401 -475l428 -623h-209l-336 504l-109 -82v-422h-180z" />
<glyph unicode="l" horiz-adv-x="530" d="M174 0v1556h182v-1556h-182z" />
<glyph unicode="m" horiz-adv-x="1835" d="M174 0v1098h148l26 -148h10q24 43 57 74.5t72.5 52.5t84 31t90.5 10q120 0 199.5 -44t117.5 -138h8q26 47 62.5 81t80 56.5t91.5 33.5t98 11q175 0 263.5 -95.5t88.5 -305.5v-717h-182v707q0 130 -50 195t-155 65q-73 0 -124 -23.5t-83.5 -69t-47.5 -113t-15 -155.5v-606 h-183v707q0 130 -49.5 195t-154.5 65q-77 0 -129 -26t-83.5 -77t-45 -125t-13.5 -170v-569h-182z" />
<glyph unicode="n" horiz-adv-x="1206" d="M174 0v1098h148l26 -148h10q25 43 59.5 74.5t75.5 52.5t87 31t94 10q183 0 275.5 -95.5t92.5 -305.5v-717h-182v707q0 130 -52.5 195t-164.5 65q-81 0 -136 -26t-88.5 -77t-48 -125t-14.5 -170v-569h-182z" />
<glyph unicode="o" horiz-adv-x="1182" d="M113 551q0 136 33.5 241.5t95.5 178t151.5 110t200.5 37.5q103 0 190 -37.5t150.5 -110t99 -178t35.5 -241.5q0 -137 -33.5 -243.5t-96 -179t-151.5 -110.5t-200 -38q-103 0 -190 38t-150.5 110.5t-99 179t-35.5 243.5zM301 551q0 -209 68.5 -314.5t222.5 -105.5 t221.5 105.5t67.5 314.5t-68.5 312.5t-222.5 103.5t-221.5 -103.5t-67.5 -312.5z" />
<glyph unicode="p" horiz-adv-x="1200" d="M174 -492v1590h148l26 -148h8q23 35 52 65.5t67.5 53t86.5 36t108 13.5q94 0 171 -36t131.5 -107.5t84.5 -177.5t30 -246q0 -141 -30 -247.5t-84.5 -178.5t-131.5 -108.5t-171 -36.5q-59 0 -107 13t-86.5 34.5t-68 50.5t-52.5 61h-12q3 -34 6 -65q2 -26 4 -53.5t2 -43.5 v-469h-182zM356 551q0 -101 13.5 -179.5t46 -132t86.5 -81t135 -27.5q135 0 198.5 109t63.5 313q0 208 -63.5 311t-200.5 103q-76 0 -128.5 -23t-85 -70t-48 -117t-17.5 -165v-41z" />
<glyph unicode="q" horiz-adv-x="1200" d="M113 547q0 141 30 247.5t85 178.5t132 108.5t170 36.5q59 0 107 -13.5t86 -36t68 -53t53 -65.5h8l27 148h147v-1590h-182v469q0 19 2 48t4 56q3 32 6 66h-12q-22 -34 -51.5 -64.5t-68 -53.5t-86.5 -36t-108 -13q-93 0 -170 36t-132 107.5t-85 177.5t-30 246zM301 545 q0 -209 63.5 -311.5t200.5 -102.5q76 0 128.5 23t85 70t48 117.5t17.5 164.5v41q0 101 -13.5 179.5t-46 132t-86.5 81t-135 27.5q-135 0 -198.5 -109t-63.5 -313z" />
<glyph unicode="r" horiz-adv-x="817" d="M174 0v1098h148l22 -201h8q25 43 53.5 83t64 70.5t79.5 49t100 18.5q29 0 65 -2.5t62 -7.5l-24 -168q-28 5 -57.5 8.5t-55.5 3.5q-63 0 -115 -25.5t-89.5 -73t-58 -114t-20.5 -147.5v-592h-182z" />
<glyph unicode="s" horiz-adv-x="924" d="M90 49v166q31 -16 69 -31.5t80 -27.5t86.5 -19.5t88.5 -7.5q65 0 110.5 11t74 31.5t41.5 50t13 65.5q0 31 -10 56t-36.5 49.5t-72.5 49.5t-118 56t-129.5 61t-97.5 67t-61.5 85.5t-21.5 115.5q0 70 27.5 124.5t77.5 91.5t120 56t156 19q97 0 177.5 -21t152.5 -55 l-63 -147q-65 29 -133.5 50.5t-139.5 21.5q-102 0 -151 -33.5t-49 -95.5q0 -35 11.5 -61t39.5 -49t75 -46.5t117 -52.5q72 -30 128.5 -60t96.5 -67.5t61 -85.5t21 -115q0 -80 -29 -140t-83.5 -100.5t-131.5 -60.5t-173 -20q-109 0 -187 17.5t-137 51.5z" />
<glyph unicode="t" horiz-adv-x="694" d="M33 961v81l155 78l78 230h105v-252h276v-137h-276v-637q0 -97 31.5 -146t103.5 -49q18 0 40.5 2t43.5 5t38.5 7t26.5 7v-138q-13 -6 -33 -12t-44 -10.5t-50 -7t-51 -2.5q-62 0 -115 16t-91.5 55t-60.5 105.5t-22 167.5v637h-155z" />
<glyph unicode="u" horiz-adv-x="1206" d="M164 381v717h182v-707q0 -130 53 -195t164 -65q81 0 136 26t88.5 76.5t48 124.5t14.5 170v570h182v-1098h-147l-27 147h-10q-25 -43 -59.5 -74.5t-75.5 -52t-87 -30.5t-94 -10q-91 0 -160 23t-115 72t-69.5 125t-23.5 181z" />
<glyph unicode="v" horiz-adv-x="981" d="M0 1098h188l199 -611q11 -33 26 -85t30 -106t27.5 -102t16.5 -73h7q5 25 17 73t27 102t30 106t26 85l199 611h188l-375 -1098h-231z" />
<glyph unicode="w" horiz-adv-x="1528" d="M20 1098h191l131 -584q10 -45 20 -97.5t19 -104t16 -97t11 -74.5h6q5 26 13.5 69.5t19 92t21.5 96t21 80.5l179 619h196l172 -619q9 -34 20.5 -80t22.5 -93.5t20 -91.5t13 -73h6q3 26 9.5 69.5t15.5 95.5t19.5 106.5t21.5 101.5l137 584h186l-284 -1098h-215l-168 616 q-4 18 -10 40.5t-12 47.5t-12.5 51t-12.5 51q-14 58 -29 120h-6q-14 -63 -27 -121q-11 -50 -23.5 -103t-23.5 -90l-172 -612h-211z" />
<glyph unicode="x" horiz-adv-x="1024" d="M35 0l373 563l-353 535h207l250 -410l250 410h207l-355 -535l373 -563h-207l-268 436l-270 -436h-207z" />
<glyph unicode="y" horiz-adv-x="1001" d="M10 1098h189l215 -613q14 -40 28.5 -84t27 -88t21.5 -85t13 -76h6q5 25 16 68t24.5 91.5t28 95.5t25.5 80l199 611h188l-434 -1241q-28 -81 -60.5 -145.5t-75.5 -109.5t-101 -69.5t-138 -24.5q-52 0 -90 5.5t-65 11.5v145q21 -5 53 -8.5t67 -3.5q48 0 83 11.5t61 33.5 t44.5 54t33.5 73l57 160z" />
<glyph unicode="z" horiz-adv-x="903" d="M82 0v125l536 836h-503v137h688v-146l-524 -815h542v-137h-739z" />
<glyph unicode="{" horiz-adv-x="725" d="M61 492v155q125 0 190.5 43t65.5 146v333q0 78 27 133t74.5 90.5t113 52t142.5 17.5v-149q-40 -1 -72.5 -7.5t-55 -24t-34.5 -48t-12 -78.5v-332q0 -105 -59.5 -166.5t-174.5 -81.5v-12q115 -20 174.5 -81t59.5 -167v-331q0 -48 12 -78.5t34.5 -48t55 -24t72.5 -7.5v-150 q-77 1 -142.5 17.5t-113 52t-74.5 90.5t-27 133v334q0 103 -65.5 146t-190.5 43z" />
<glyph unicode="|" d="M489 -492v2048h150v-2048h-150z" />
<glyph unicode="}" horiz-adv-x="725" d="M51 -174q40 1 72.5 7.5t55 24t34.5 48t12 78.5v331q0 106 59.5 167t174.5 81v12q-115 20 -174.5 81.5t-59.5 166.5v332q0 48 -12 78.5t-34.5 48t-55 24t-72.5 7.5v149q77 -1 142.5 -17.5t113 -52t74.5 -90.5t27 -133v-333q0 -52 16.5 -88t49 -58.5t80.5 -32.5t110 -10 v-155q-125 0 -190.5 -43t-65.5 -146v-334q0 -78 -27 -133t-74.5 -90.5t-113 -52t-142.5 -17.5v150z" />
<glyph unicode="~" d="M102 586v162q100 108 248 108q29 0 54 -2.5t52.5 -9t61 -19t80.5 -32.5q37 -16 64.5 -27t51 -17.5t43.5 -9t42 -2.5q28 0 58 9.5t59.5 26t57.5 38.5t52 47v-162q-99 -108 -248 -108q-29 0 -54 2.5t-52.5 9t-61 19t-80.5 32.5q-37 16 -64.5 27t-50 17.5t-43 9t-42.5 2.5 q-28 0 -58 -9.5t-59.5 -26t-57.5 -38.5t-53 -47z" />
<glyph unicode="&#xa1;" horiz-adv-x="551" d="M147 979q0 37 10 63t27.5 43t40.5 25t49 8q27 0 50 -8t40.5 -25t27 -43t9.5 -63q0 -38 -9.5 -64.5t-27 -43t-40.5 -24t-50 -7.5q-26 0 -49 7.5t-40.5 24t-27.5 43t-10 64.5zM162 -373l51 1049h121l51 -1049h-223z" />
<glyph unicode="&#xa2;" d="M188 743q0 141 26.5 242.5t75 169.5t118 105.5t155.5 50.5v172h137v-164q72 -3 140 -19.5t114 -39.5l-53 -154q-23 10 -51 19.5t-58 17t-59.5 12t-54.5 4.5q-157 0 -229 -101t-72 -313q0 -210 72.5 -307.5t220.5 -97.5q81 0 146.5 18.5t119.5 42.5v-161q-50 -28 -105 -43 t-131 -17v-200h-137v206q-87 13 -156 50.5t-118 104t-75 166t-26 236.5z" />
<glyph unicode="&#xa3;" d="M68 0v154q44 11 80.5 31.5t63 54.5t41.5 82.5t15 115.5v213h-198v137h198v324q0 87 29.5 155.5t82 116t125.5 72.5t161 25q106 0 193 -22.5t153 -57.5l-66 -144q-56 29 -126.5 50.5t-145.5 21.5q-48 0 -89 -13.5t-71 -43t-46.5 -76.5t-16.5 -113v-295h376v-137h-376v-211 q0 -62 -11.5 -106.5t-31 -76.5t-45 -53.5t-52.5 -37.5h748v-166h-991z" />
<glyph unicode="&#xa4;" d="M123 1065l98 98l127 -129q47 32 101 50t114 18t113.5 -18t99.5 -50l129 129l99 -96l-130 -129q31 -46 49.5 -100.5t18.5 -114.5t-17.5 -115t-50.5 -100l127 -127l-96 -96l-129 127q-46 -31 -99.5 -48.5t-113.5 -17.5t-115 18t-100 50l-127 -127l-96 96l127 127 q-31 45 -48.5 99t-17.5 114q0 59 17.5 112.5t48.5 100.5zM324 723q0 -50 18.5 -93.5t51 -76t76 -51.5t93.5 -19q51 0 95.5 19t77.5 51.5t52 76t19 93.5q0 51 -19 95.5t-52 77.5t-77.5 52t-95.5 19q-50 0 -93.5 -19t-76 -52t-51 -77.5t-18.5 -95.5z" />
<glyph unicode="&#xa5;" d="M29 1462h192l342 -739l346 739h191l-385 -768h239v-137h-301v-158h301v-137h-301v-262h-178v262h-301v137h301v158h-301v137h234z" />
<glyph unicode="&#xa6;" d="M489 289h150v-781h-150v781zM489 776v780h150v-780h-150z" />
<glyph unicode="&#xa7;" horiz-adv-x="995" d="M121 55v158q31 -15 69 -30t80 -26.5t86.5 -18.5t87.5 -7q69 0 115.5 12t74 31.5t39 45t11.5 52.5q0 29 -8.5 51.5t-34 45t-72.5 47t-123 55.5q-73 31 -130.5 62t-97.5 70t-60.5 89t-20.5 117q0 51 13 92.5t35.5 73.5t51.5 54.5t60 37.5q-75 38 -117.5 95t-42.5 141 q0 61 27.5 110t77.5 83t120 52.5t156 18.5q97 0 175.5 -20t150.5 -52l-56 -139q-65 28 -135 47.5t-141 19.5q-99 0 -150 -29.5t-51 -86.5q0 -27 12 -50t40.5 -45t76 -45.5t117.5 -52.5q72 -28 128.5 -60.5t95.5 -71.5t60 -87.5t21 -110.5q0 -52 -12 -94.5t-32.5 -76.5 t-46.5 -58.5t-54 -40.5q69 -38 107 -92.5t38 -132.5q0 -71 -29.5 -126.5t-83.5 -94t-131.5 -58.5t-173.5 -20q-108 0 -186 16.5t-137 48.5zM291 831q0 -37 14 -68.5t45.5 -60.5t82 -56.5t122.5 -57.5l35 -15q20 13 40.5 31t37 41t27 51t10.5 62q0 38 -13 70t-45.5 61.5 t-86.5 58t-136 58.5q-25 -8 -48.5 -23.5t-42.5 -38t-30.5 -51.5t-11.5 -62z" />
<glyph unicode="&#xa8;" horiz-adv-x="1182" d="M307 1395q0 54 28 78t68 24q39 0 68 -24.5t29 -77.5t-29 -78t-68 -25q-40 0 -68 25t-28 78zM682 1395q0 54 28 78t68 24q19 0 36.5 -6t30.5 -18.5t21 -31.5t8 -46q0 -53 -29 -78t-67 -25q-40 0 -68 25t-28 78z" />
<glyph unicode="&#xa9;" horiz-adv-x="1704" d="M100 731q0 104 27 200t75.5 179.5t117.5 152.5t152.5 117.5t179.5 75.5t200 27t200 -27t179.5 -75.5t152.5 -117.5t117.5 -152.5t75.5 -179.5t27 -200t-27 -200t-75.5 -179.5t-117.5 -152t-152.5 -117.5t-179.5 -75.5t-200 -26.5t-200 26.5t-179.5 75.5t-152.5 117.5 t-117.5 152t-75.5 179.5t-27 200zM209 731q0 -133 50.5 -250t138 -204.5t204.5 -138t250 -50.5t250 50.5t204.5 138t138 204.5t50.5 250t-50.5 250t-138 204.5t-204.5 138t-250 50.5t-250 -50.5t-204.5 -138t-138 -204.5t-50.5 -250zM479 733q0 101 27 184